\addvspace {10\p@ }
\addvspace {10\p@ }
\addvspace {10\p@ }
\contentsline {table}{\numberline {III.1}{\ignorespaces Data Primer dari Website D'health\relax }}{13}% 
\addvspace {10\p@ }
\addvspace {10\p@ }
\contentsline {table}{\numberline {V.1}{\ignorespaces Deskripsi Kebutuhan Minumum Perangkat Keras\relax }}{22}% 
\contentsline {table}{\numberline {V.2}{\ignorespaces Deskripsi Kebutuhan Minumum Perangkat Lunak\relax }}{23}% 
\contentsline {table}{\numberline {V.3}{\ignorespaces Lingkungan Perangkat Keras\relax }}{24}% 
\contentsline {table}{\numberline {V.4}{\ignorespaces Lingkungan Perangkat Lunak\relax }}{24}% 
\contentsline {table}{\numberline {V.5}{\ignorespaces Lingkungan Pengujian Server\relax }}{25}% 
\contentsline {table}{\numberline {V.6}{\ignorespaces Data Sampel yang di Ujikan\relax }}{26}% 
\contentsline {table}{\numberline {V.7}{\ignorespaces Pesan dirubah Ke Dalam Bahasa Inggris\relax }}{26}% 
\contentsline {table}{\numberline {V.8}{\ignorespaces Proses Tokenization\relax }}{27}% 
\contentsline {table}{\numberline {V.9}{\ignorespaces Proses Normalization\relax }}{28}% 
\contentsline {table}{\numberline {V.10}{\ignorespaces Proses Stemming\relax }}{28}% 
\contentsline {table}{\numberline {V.11}{\ignorespaces Keywords yang akan dibandingkan hasil dari preprocessing\relax }}{30}% 
\contentsline {table}{\numberline {V.12}{\ignorespaces Matirx Data Pengujian dan Pembanding\relax }}{30}% 
\contentsline {table}{\numberline {V.13}{\ignorespaces Matirx Data Primer dan Pembanding\relax }}{30}% 
\addvspace {10\p@ }
\contentsline {table}{\numberline {VI.1}{\ignorespaces Matirx Data Primer dan Pembanding\relax }}{32}% 
\addvspace {10\p@ }
\addvspace {10\p@ }
\addvspace {10\p@ }
\addvspace {10\p@ }
